Introducción al procesamiento, visualización y mapeo de datos espaciales en R
…
Para utilizar esta función, simplemente necesitamos especificar el
nombre de la variable nueva que indica el país (country) y el nombre de
las columnas de países.

dat_input <- 
  gather(data = dat_loc, 
         key = country, value = count,  "Bolivia","Brazil", "Colombia","Ecuador",
         "French.Guyana", "Guyana", "Panama", "Peru", "Suriname", "Venezuela", 
         na.rm = TRUE)

dat_input

## # A tibble: 18,020 x 11
##    ID    class    species         year latitude longitude basisOfRecord taxonKey
##    <chr> <chr>    <chr>          <dbl>    <dbl>     <dbl> <chr>            <dbl>
##  1 CT_1  Mammalia Cerdocyon tho~  2021     4.38     -75.1 HUMAN_OBSERV~        6
##  2 CT_2  Mammalia Cerdocyon tho~  2021     6.83     -73.7 HUMAN_OBSERV~        6
##  3 CT_3  Mammalia Cerdocyon tho~  2021     6.73     -73.9 HUMAN_OBSERV~        6
##  4 CT_4  Mammalia Cerdocyon tho~  2021     4.72     -74.0 HUMAN_OBSERV~        6
##  5 CT_5  Mammalia Cerdocyon tho~  2021     9.87     -75.2 HUMAN_OBSERV~        6
##  6 CT_6  Mammalia Cerdocyon tho~  2021     3.74    -177.  HUMAN_OBSERV~        6
##  7 CT_7  Mammalia Cerdocyon tho~  2021     3.75     -76.7 HUMAN_OBSERV~        6
##  8 CT_8  Mammalia Cerdocyon tho~  2021     3.75     -76.7 HUMAN_OBSERV~        6
##  9 CT_9  Mammalia Cerdocyon tho~  2021     3.74     -76.7 HUMAN_OBSERV~        6
## 10 CT_10 Mammalia Cerdocyon tho~  2021     3.75     -76.7 HUMAN_OBSERV~        6
## # ... with 18,010 more rows, and 3 more variables: stateProvince <chr>,
## #   country <chr>, count <dbl>
…
Ahora podemos utilizar esa tabla para resumir los datos con las
estadísticas deseadas

(dat_elev_sum <- 
    summarize(datg,
              mean_elev = mean(elevation),
              sd_elev = sd(elevation),
              n = n()))

## # A tibble: 31 x 4
##    NAME_1    mean_elev sd_elev     n
##    <chr>         <dbl>   <dbl> <int>
##  1 Amazonas      104.     35.4    68
##  2 Antioquia     990.    807.    151
##  3 Arauca        290.    299.     67
##  4 Atlantico      78.2    71.7    44
##  5 Bolivar       438.    410.     99
##  6 Boyaca       1742    1068.     92
##  7 Caldas       1435.    938.    159
##  8 Caqueta       427.    343.    119
##  9 Casanare      475.    507.    126
## 10 Cauca        1421.    711.    118
## # ... with 21 more rows
…
